^C:\USERS\XIAOM\SOURCE\REPOS\HOMEWORK 15.4\HOMEWORK 15.4.CPP
C:\USERS\XIAOM\SOURCE\REPOS\HOMEWORK 15.4\DEBUG\VC142.PDB
C:\USERS\XIAOM\SOURCE\REPOS\HOMEWORK 15.4\DEBUG\VC142.IDB
C:\USERS\XIAOM\SOURCE\REPOS\HOMEWORK 15.4\DEBUG\HOMEWORK 15.4.OBJ
